%YAML 1.1
%TAG !u! tag:unity3d.com,2011:
--- !u!1001 &6945007682623659385
PrefabInstance:
  m_ObjectHideFlags: 0
  serializedVersion: 2
  m_Modification:
    m_TransformParent: {fileID: 0}
    m_Modifications:
    - target: {fileID: -5733761110559157154, guid: 6bd9842b29ce5de4f8104b636c3722c8, type: 3}
      propertyPath: VFXprefab
      value: 
      objectReference: {fileID: 2369778899372734095, guid: e3e3a74c1a8bb674885bb33027843ead, type: 3}
    - target: {fileID: -5733761110559157154, guid: 6bd9842b29ce5de4f8104b636c3722c8, type: 3}
      propertyPath: launchForce
      value: 50
      objectReference: {fileID: 0}
    - target: {fileID: -5733761110559157154, guid: 6bd9842b29ce5de4f8104b636c3722c8, type: 3}
      propertyPath: damageToDeal
      value: 50
      objectReference: {fileID: 0}
    - target: {fileID: 2699490954828687678, guid: 6bd9842b29ce5de4f8104b636c3722c8, type: 3}
      propertyPath: m_Radius
      value: 0.38
      objectReference: {fileID: 0}
    - target: {fileID: 4863861573203767468, guid: 6bd9842b29ce5de4f8104b636c3722c8, type: 3}
      propertyPath: sceneId
      value: 0
      objectReference: {fileID: 0}
    - target: {fileID: 4863861573203767468, guid: 6bd9842b29ce5de4f8104b636c3722c8, type: 3}
      propertyPath: m_AssetId
      value: 
      objectReference: {fileID: 0}
    - target: {fileID: 6659428259396785958, guid: 6bd9842b29ce5de4f8104b636c3722c8, type: 3}
      propertyPath: m_Name
      value: BigProjectile
      objectReference: {fileID: 0}
    - target: {fileID: 6789430283181335700, guid: 6bd9842b29ce5de4f8104b636c3722c8, type: 3}
      propertyPath: m_RootOrder
      value: 0
      objectReference: {fileID: 0}
    - target: {fileID: 6789430283181335700, guid: 6bd9842b29ce5de4f8104b636c3722c8, type: 3}
      propertyPath: m_LocalScale.x
      value: 0.46251938
      objectReference: {fileID: 0}
    - target: {fileID: 6789430283181335700, guid: 6bd9842b29ce5de4f8104b636c3722c8, type: 3}
      propertyPath: m_LocalScale.y
      value: 0.08068832
      objectReference: {fileID: 0}
    - target: {fileID: 6789430283181335700, guid: 6bd9842b29ce5de4f8104b636c3722c8, type: 3}
      propertyPath: m_LocalScale.z
      value: 0.4111067
      objectReference: {fileID: 0}
    - target: {fileID: 6789430283181335700, guid: 6bd9842b29ce5de4f8104b636c3722c8, type: 3}
      propertyPath: m_LocalPosition.x
      value: 0
      objectReference: {fileID: 0}
    - target: {fileID: 6789430283181335700, guid: 6bd9842b29ce5de4f8104b636c3722c8, type: 3}
      propertyPath: m_LocalPosition.y
      value: 0
      objectReference: {fileID: 0}
    - target: {fileID: 6789430283181335700, guid: 6bd9842b29ce5de4f8104b636c3722c8, type: 3}
      propertyPath: m_LocalPosition.z
      value: 0
      objectReference: {fileID: 0}
    - target: {fileID: 6789430283181335700, guid: 6bd9842b29ce5de4f8104b636c3722c8, type: 3}
      propertyPath: m_LocalRotation.w
      value: 1
      objectReference: {fileID: 0}
    - target: {fileID: 6789430283181335700, guid: 6bd9842b29ce5de4f8104b636c3722c8, type: 3}
      propertyPath: m_LocalRotation.x
      value: -0
      objectReference: {fileID: 0}
    - target: {fileID: 6789430283181335700, guid: 6bd9842b29ce5de4f8104b636c3722c8, type: 3}
      propertyPath: m_LocalRotation.y
      value: -0
      objectReference: {fileID: 0}
    - target: {fileID: 6789430283181335700, guid: 6bd9842b29ce5de4f8104b636c3722c8, type: 3}
      propertyPath: m_LocalRotation.z
      value: -0
      objectReference: {fileID: 0}
    - target: {fileID: 6789430283181335700, guid: 6bd9842b29ce5de4f8104b636c3722c8, type: 3}
      propertyPath: m_LocalEulerAnglesHint.x
      value: 0
      objectReference: {fileID: 0}
    - target: {fileID: 6789430283181335700, guid: 6bd9842b29ce5de4f8104b636c3722c8, type: 3}
      propertyPath: m_LocalEulerAnglesHint.y
      value: 0
      objectReference: {fileID: 0}
    - target: {fileID: 6789430283181335700, guid: 6bd9842b29ce5de4f8104b636c3722c8, type: 3}
      propertyPath: m_LocalEulerAnglesHint.z
      value: 0
      objectReference: {fileID: 0}
    - target: {fileID: 6824051624930849562, guid: 6bd9842b29ce5de4f8104b636c3722c8, type: 3}
      propertyPath: m_CastShadows
      value: 1
      objectReference: {fileID: 0}
    m_RemovedComponents: []
  m_SourcePrefab: {fileID: 100100000, guid: 6bd9842b29ce5de4f8104b636c3722c8, type: 3}
