%YAML 1.1
%TAG !u! tag:unity3d.com,2011:
--- !u!1 &936611484339498032
GameObject:
  m_ObjectHideFlags: 0
  m_CorrespondingSourceObject: {fileID: 0}
  m_PrefabInstance: {fileID: 0}
  m_PrefabAsset: {fileID: 0}
  serializedVersion: 6
  m_Component:
  - component: {fileID: 3360452786589921867}
  m_Layer: 0
  m_Name: bigconstructionbase_model
  m_TagString: Untagged
  m_Icon: {fileID: 0}
  m_NavMeshLayer: 0
  m_StaticEditorFlags: 0
  m_IsActive: 1
--- !u!4 &3360452786589921867
Transform:
  m_ObjectHideFlags: 0
  m_CorrespondingSourceObject: {fileID: 0}
  m_PrefabInstance: {fileID: 0}
  m_PrefabAsset: {fileID: 0}
  m_GameObject: {fileID: 936611484339498032}
  m_LocalRotation: {x: 0, y: 0, z: 0, w: 1}
  m_LocalPosition: {x: 0, y: 0, z: 0}
  m_LocalScale: {x: 1, y: 1, z: 1}
  m_Children:
  - {fileID: 4310218376924381768}
  m_Father: {fileID: 0}
  m_RootOrder: 0
  m_LocalEulerAnglesHint: {x: 0, y: 0, z: 0}
--- !u!1001 &4348860663780418979
PrefabInstance:
  m_ObjectHideFlags: 0
  serializedVersion: 2
  m_Modification:
    m_TransformParent: {fileID: 3360452786589921867}
    m_Modifications:
    - target: {fileID: -8679921383154817045, guid: 9849127526660cc44ad4408ca18e8002, type: 3}
      propertyPath: m_RootOrder
      value: 0
      objectReference: {fileID: 0}
    - target: {fileID: -8679921383154817045, guid: 9849127526660cc44ad4408ca18e8002, type: 3}
      propertyPath: m_LocalPosition.x
      value: 0
      objectReference: {fileID: 0}
    - target: {fileID: -8679921383154817045, guid: 9849127526660cc44ad4408ca18e8002, type: 3}
      propertyPath: m_LocalPosition.y
      value: 0
      objectReference: {fileID: 0}
    - target: {fileID: -8679921383154817045, guid: 9849127526660cc44ad4408ca18e8002, type: 3}
      propertyPath: m_LocalPosition.z
      value: 0
      objectReference: {fileID: 0}
    - target: {fileID: -8679921383154817045, guid: 9849127526660cc44ad4408ca18e8002, type: 3}
      propertyPath: m_LocalRotation.w
      value: 1
      objectReference: {fileID: 0}
    - target: {fileID: -8679921383154817045, guid: 9849127526660cc44ad4408ca18e8002, type: 3}
      propertyPath: m_LocalRotation.x
      value: 0
      objectReference: {fileID: 0}
    - target: {fileID: -8679921383154817045, guid: 9849127526660cc44ad4408ca18e8002, type: 3}
      propertyPath: m_LocalRotation.y
      value: 0
      objectReference: {fileID: 0}
    - target: {fileID: -8679921383154817045, guid: 9849127526660cc44ad4408ca18e8002, type: 3}
      propertyPath: m_LocalRotation.z
      value: 0
      objectReference: {fileID: 0}
    - target: {fileID: -8679921383154817045, guid: 9849127526660cc44ad4408ca18e8002, type: 3}
      propertyPath: m_LocalEulerAnglesHint.x
      value: 0
      objectReference: {fileID: 0}
    - target: {fileID: -8679921383154817045, guid: 9849127526660cc44ad4408ca18e8002, type: 3}
      propertyPath: m_LocalEulerAnglesHint.y
      value: 0
      objectReference: {fileID: 0}
    - target: {fileID: -8679921383154817045, guid: 9849127526660cc44ad4408ca18e8002, type: 3}
      propertyPath: m_LocalEulerAnglesHint.z
      value: 0
      objectReference: {fileID: 0}
    - target: {fileID: -5115568525875424724, guid: 9849127526660cc44ad4408ca18e8002, type: 3}
      propertyPath: m_Materials.Array.data[0]
      value: 
      objectReference: {fileID: 2100000, guid: 42f1722cb569bb744bcf58c00f6ea7e5, type: 2}
    - target: {fileID: -4254869643563762964, guid: 9849127526660cc44ad4408ca18e8002, type: 3}
      propertyPath: m_Materials.Array.data[0]
      value: 
      objectReference: {fileID: 2100000, guid: 42f1722cb569bb744bcf58c00f6ea7e5, type: 2}
    - target: {fileID: -1104992232545627252, guid: 9849127526660cc44ad4408ca18e8002, type: 3}
      propertyPath: m_Materials.Array.data[0]
      value: 
      objectReference: {fileID: 2100000, guid: 42f1722cb569bb744bcf58c00f6ea7e5, type: 2}
    - target: {fileID: -1104992232545627252, guid: 9849127526660cc44ad4408ca18e8002, type: 3}
      propertyPath: m_Materials.Array.data[1]
      value: 
      objectReference: {fileID: 2100000, guid: 66bf8c92ecc59454f92e2335a680f721, type: 2}
    - target: {fileID: -297573618576725516, guid: 9849127526660cc44ad4408ca18e8002, type: 3}
      propertyPath: m_Materials.Array.data[0]
      value: 
      objectReference: {fileID: 2100000, guid: 42f1722cb569bb744bcf58c00f6ea7e5, type: 2}
    - target: {fileID: 919132149155446097, guid: 9849127526660cc44ad4408ca18e8002, type: 3}
      propertyPath: m_Name
      value: building_bigconstructionbase
      objectReference: {fileID: 0}
    - target: {fileID: 1375694789618442402, guid: 9849127526660cc44ad4408ca18e8002, type: 3}
      propertyPath: m_Materials.Array.data[0]
      value: 
      objectReference: {fileID: 2100000, guid: 42f1722cb569bb744bcf58c00f6ea7e5, type: 2}
    - target: {fileID: 1529465388899795708, guid: 9849127526660cc44ad4408ca18e8002, type: 3}
      propertyPath: m_Materials.Array.data[0]
      value: 
      objectReference: {fileID: 2100000, guid: 42f1722cb569bb744bcf58c00f6ea7e5, type: 2}
    - target: {fileID: 2107566558100473746, guid: 9849127526660cc44ad4408ca18e8002, type: 3}
      propertyPath: m_Materials.Array.data[0]
      value: 
      objectReference: {fileID: 2100000, guid: 42f1722cb569bb744bcf58c00f6ea7e5, type: 2}
    - target: {fileID: 2107566558100473746, guid: 9849127526660cc44ad4408ca18e8002, type: 3}
      propertyPath: m_Materials.Array.data[1]
      value: 
      objectReference: {fileID: 2100000, guid: 66bf8c92ecc59454f92e2335a680f721, type: 2}
    - target: {fileID: 2266777863917723307, guid: 9849127526660cc44ad4408ca18e8002, type: 3}
      propertyPath: m_Materials.Array.data[0]
      value: 
      objectReference: {fileID: 2100000, guid: 42f1722cb569bb744bcf58c00f6ea7e5, type: 2}
    - target: {fileID: 2572165597589395237, guid: 9849127526660cc44ad4408ca18e8002, type: 3}
      propertyPath: m_Materials.Array.data[0]
      value: 
      objectReference: {fileID: 2100000, guid: 42f1722cb569bb744bcf58c00f6ea7e5, type: 2}
    - target: {fileID: 3952108740792515711, guid: 9849127526660cc44ad4408ca18e8002, type: 3}
      propertyPath: m_Materials.Array.data[0]
      value: 
      objectReference: {fileID: 2100000, guid: 42f1722cb569bb744bcf58c00f6ea7e5, type: 2}
    - target: {fileID: 4084825286848337037, guid: 9849127526660cc44ad4408ca18e8002, type: 3}
      propertyPath: m_Materials.Array.data[0]
      value: 
      objectReference: {fileID: 2100000, guid: 42f1722cb569bb744bcf58c00f6ea7e5, type: 2}
    - target: {fileID: 4651526048403845430, guid: 9849127526660cc44ad4408ca18e8002, type: 3}
      propertyPath: m_Materials.Array.data[0]
      value: 
      objectReference: {fileID: 2100000, guid: 42f1722cb569bb744bcf58c00f6ea7e5, type: 2}
    - target: {fileID: 5845743702070384630, guid: 9849127526660cc44ad4408ca18e8002, type: 3}
      propertyPath: m_Materials.Array.data[0]
      value: 
      objectReference: {fileID: 2100000, guid: b5322f2b716c5464badcf67ec0b596cc, type: 2}
    - target: {fileID: 5845743702070384630, guid: 9849127526660cc44ad4408ca18e8002, type: 3}
      propertyPath: m_Materials.Array.data[1]
      value: 
      objectReference: {fileID: 2100000, guid: 42f1722cb569bb744bcf58c00f6ea7e5, type: 2}
    - target: {fileID: 6999299194806464566, guid: 9849127526660cc44ad4408ca18e8002, type: 3}
      propertyPath: m_Materials.Array.data[0]
      value: 
      objectReference: {fileID: 2100000, guid: 42f1722cb569bb744bcf58c00f6ea7e5, type: 2}
    - target: {fileID: 7407868159284136857, guid: 9849127526660cc44ad4408ca18e8002, type: 3}
      propertyPath: m_Materials.Array.data[0]
      value: 
      objectReference: {fileID: 2100000, guid: 42f1722cb569bb744bcf58c00f6ea7e5, type: 2}
    m_RemovedComponents: []
  m_SourcePrefab: {fileID: 100100000, guid: 9849127526660cc44ad4408ca18e8002, type: 3}
--- !u!4 &4310218376924381768 stripped
Transform:
  m_CorrespondingSourceObject: {fileID: -8679921383154817045, guid: 9849127526660cc44ad4408ca18e8002, type: 3}
  m_PrefabInstance: {fileID: 4348860663780418979}
  m_PrefabAsset: {fileID: 0}
