%YAML 1.1
%TAG !u! tag:unity3d.com,2011:
--- !u!1 &5357033253462036586
GameObject:
  m_ObjectHideFlags: 0
  m_CorrespondingSourceObject: {fileID: 0}
  m_PrefabInstance: {fileID: 0}
  m_PrefabAsset: {fileID: 0}
  serializedVersion: 6
  m_Component:
  - component: {fileID: 6291891917314913697}
  m_Layer: 0
  m_Name: connectionpoint_model
  m_TagString: Untagged
  m_Icon: {fileID: 0}
  m_NavMeshLayer: 0
  m_StaticEditorFlags: 0
  m_IsActive: 1
--- !u!4 &6291891917314913697
Transform:
  m_ObjectHideFlags: 0
  m_CorrespondingSourceObject: {fileID: 0}
  m_PrefabInstance: {fileID: 0}
  m_PrefabAsset: {fileID: 0}
  m_GameObject: {fileID: 5357033253462036586}
  m_LocalRotation: {x: 0, y: 0, z: 0, w: 1}
  m_LocalPosition: {x: 0, y: 0, z: 0}
  m_LocalScale: {x: 1, y: 1, z: 1}
  m_Children:
  - {fileID: 1516965393239394323}
  m_Father: {fileID: 0}
  m_RootOrder: 0
  m_LocalEulerAnglesHint: {x: 0, y: 0, z: 0}
--- !u!1001 &1335298054875852792
PrefabInstance:
  m_ObjectHideFlags: 0
  serializedVersion: 2
  m_Modification:
    m_TransformParent: {fileID: 6291891917314913697}
    m_Modifications:
    - target: {fileID: -8679921383154817045, guid: 4d015b3a6cb9cd84ea6976c9942bd73d, type: 3}
      propertyPath: m_RootOrder
      value: 0
      objectReference: {fileID: 0}
    - target: {fileID: -8679921383154817045, guid: 4d015b3a6cb9cd84ea6976c9942bd73d, type: 3}
      propertyPath: m_LocalPosition.x
      value: 0
      objectReference: {fileID: 0}
    - target: {fileID: -8679921383154817045, guid: 4d015b3a6cb9cd84ea6976c9942bd73d, type: 3}
      propertyPath: m_LocalPosition.y
      value: 0
      objectReference: {fileID: 0}
    - target: {fileID: -8679921383154817045, guid: 4d015b3a6cb9cd84ea6976c9942bd73d, type: 3}
      propertyPath: m_LocalPosition.z
      value: 0
      objectReference: {fileID: 0}
    - target: {fileID: -8679921383154817045, guid: 4d015b3a6cb9cd84ea6976c9942bd73d, type: 3}
      propertyPath: m_LocalRotation.w
      value: 1
      objectReference: {fileID: 0}
    - target: {fileID: -8679921383154817045, guid: 4d015b3a6cb9cd84ea6976c9942bd73d, type: 3}
      propertyPath: m_LocalRotation.x
      value: 0
      objectReference: {fileID: 0}
    - target: {fileID: -8679921383154817045, guid: 4d015b3a6cb9cd84ea6976c9942bd73d, type: 3}
      propertyPath: m_LocalRotation.y
      value: 0
      objectReference: {fileID: 0}
    - target: {fileID: -8679921383154817045, guid: 4d015b3a6cb9cd84ea6976c9942bd73d, type: 3}
      propertyPath: m_LocalRotation.z
      value: 0
      objectReference: {fileID: 0}
    - target: {fileID: -8679921383154817045, guid: 4d015b3a6cb9cd84ea6976c9942bd73d, type: 3}
      propertyPath: m_LocalEulerAnglesHint.x
      value: 0
      objectReference: {fileID: 0}
    - target: {fileID: -8679921383154817045, guid: 4d015b3a6cb9cd84ea6976c9942bd73d, type: 3}
      propertyPath: m_LocalEulerAnglesHint.y
      value: 0
      objectReference: {fileID: 0}
    - target: {fileID: -8679921383154817045, guid: 4d015b3a6cb9cd84ea6976c9942bd73d, type: 3}
      propertyPath: m_LocalEulerAnglesHint.z
      value: 0
      objectReference: {fileID: 0}
    - target: {fileID: 919132149155446097, guid: 4d015b3a6cb9cd84ea6976c9942bd73d, type: 3}
      propertyPath: m_Name
      value: building_ConnectionPoint
      objectReference: {fileID: 0}
    - target: {fileID: 5579770404202701467, guid: 4d015b3a6cb9cd84ea6976c9942bd73d, type: 3}
      propertyPath: m_Materials.Array.data[0]
      value: 
      objectReference: {fileID: 2100000, guid: 42f1722cb569bb744bcf58c00f6ea7e5, type: 2}
    - target: {fileID: 7798250440917288425, guid: 4d015b3a6cb9cd84ea6976c9942bd73d, type: 3}
      propertyPath: m_Materials.Array.data[0]
      value: 
      objectReference: {fileID: 2100000, guid: 42f1722cb569bb744bcf58c00f6ea7e5, type: 2}
    - target: {fileID: 7798250440917288425, guid: 4d015b3a6cb9cd84ea6976c9942bd73d, type: 3}
      propertyPath: m_Materials.Array.data[1]
      value: 
      objectReference: {fileID: 2100000, guid: b5322f2b716c5464badcf67ec0b596cc, type: 2}
    - target: {fileID: 7798250440917288425, guid: 4d015b3a6cb9cd84ea6976c9942bd73d, type: 3}
      propertyPath: m_Materials.Array.data[2]
      value: 
      objectReference: {fileID: 2100000, guid: 66bf8c92ecc59454f92e2335a680f721, type: 2}
    m_RemovedComponents: []
  m_SourcePrefab: {fileID: 100100000, guid: 4d015b3a6cb9cd84ea6976c9942bd73d, type: 3}
--- !u!4 &1516965393239394323 stripped
Transform:
  m_CorrespondingSourceObject: {fileID: -8679921383154817045, guid: 4d015b3a6cb9cd84ea6976c9942bd73d, type: 3}
  m_PrefabInstance: {fileID: 1335298054875852792}
  m_PrefabAsset: {fileID: 0}
