%YAML 1.1
%TAG !u! tag:unity3d.com,2011:
--- !u!1 &93684434941485777
GameObject:
  m_ObjectHideFlags: 0
  m_CorrespondingSourceObject: {fileID: 0}
  m_PrefabInstance: {fileID: 0}
  m_PrefabAsset: {fileID: 0}
  serializedVersion: 6
  m_Component:
  - component: {fileID: 7030889533332701363}
  m_Layer: 0
  m_Name: heavytank_model
  m_TagString: Untagged
  m_Icon: {fileID: 0}
  m_NavMeshLayer: 0
  m_StaticEditorFlags: 0
  m_IsActive: 1
--- !u!4 &7030889533332701363
Transform:
  m_ObjectHideFlags: 0
  m_CorrespondingSourceObject: {fileID: 0}
  m_PrefabInstance: {fileID: 0}
  m_PrefabAsset: {fileID: 0}
  m_GameObject: {fileID: 93684434941485777}
  m_LocalRotation: {x: 0, y: 0, z: 0, w: 1}
  m_LocalPosition: {x: 0, y: 0, z: 0}
  m_LocalScale: {x: 1, y: 1, z: 1}
  m_Children:
  - {fileID: 751564408029014897}
  m_Father: {fileID: 0}
  m_RootOrder: 0
  m_LocalEulerAnglesHint: {x: 0, y: 0, z: 0}
--- !u!1001 &1001117043574443162
PrefabInstance:
  m_ObjectHideFlags: 0
  serializedVersion: 2
  m_Modification:
    m_TransformParent: {fileID: 7030889533332701363}
    m_Modifications:
    - target: {fileID: -8679921383154817045, guid: ef5a7612a2d90904a9d1351c681d9938, type: 3}
      propertyPath: m_RootOrder
      value: 0
      objectReference: {fileID: 0}
    - target: {fileID: -8679921383154817045, guid: ef5a7612a2d90904a9d1351c681d9938, type: 3}
      propertyPath: m_LocalPosition.x
      value: 0
      objectReference: {fileID: 0}
    - target: {fileID: -8679921383154817045, guid: ef5a7612a2d90904a9d1351c681d9938, type: 3}
      propertyPath: m_LocalPosition.y
      value: 0
      objectReference: {fileID: 0}
    - target: {fileID: -8679921383154817045, guid: ef5a7612a2d90904a9d1351c681d9938, type: 3}
      propertyPath: m_LocalPosition.z
      value: 0
      objectReference: {fileID: 0}
    - target: {fileID: -8679921383154817045, guid: ef5a7612a2d90904a9d1351c681d9938, type: 3}
      propertyPath: m_LocalRotation.w
      value: 1
      objectReference: {fileID: 0}
    - target: {fileID: -8679921383154817045, guid: ef5a7612a2d90904a9d1351c681d9938, type: 3}
      propertyPath: m_LocalRotation.x
      value: 0
      objectReference: {fileID: 0}
    - target: {fileID: -8679921383154817045, guid: ef5a7612a2d90904a9d1351c681d9938, type: 3}
      propertyPath: m_LocalRotation.y
      value: 0
      objectReference: {fileID: 0}
    - target: {fileID: -8679921383154817045, guid: ef5a7612a2d90904a9d1351c681d9938, type: 3}
      propertyPath: m_LocalRotation.z
      value: 0
      objectReference: {fileID: 0}
    - target: {fileID: -8679921383154817045, guid: ef5a7612a2d90904a9d1351c681d9938, type: 3}
      propertyPath: m_LocalEulerAnglesHint.x
      value: 0
      objectReference: {fileID: 0}
    - target: {fileID: -8679921383154817045, guid: ef5a7612a2d90904a9d1351c681d9938, type: 3}
      propertyPath: m_LocalEulerAnglesHint.y
      value: 0
      objectReference: {fileID: 0}
    - target: {fileID: -8679921383154817045, guid: ef5a7612a2d90904a9d1351c681d9938, type: 3}
      propertyPath: m_LocalEulerAnglesHint.z
      value: 0
      objectReference: {fileID: 0}
    - target: {fileID: -8470237155545742485, guid: ef5a7612a2d90904a9d1351c681d9938, type: 3}
      propertyPath: m_Materials.Array.data[0]
      value: 
      objectReference: {fileID: 2100000, guid: 42f1722cb569bb744bcf58c00f6ea7e5, type: 2}
    - target: {fileID: -8421581356478662775, guid: ef5a7612a2d90904a9d1351c681d9938, type: 3}
      propertyPath: m_Materials.Array.data[0]
      value: 
      objectReference: {fileID: 2100000, guid: 42f1722cb569bb744bcf58c00f6ea7e5, type: 2}
    - target: {fileID: -8002826794247820780, guid: ef5a7612a2d90904a9d1351c681d9938, type: 3}
      propertyPath: m_Materials.Array.data[0]
      value: 
      objectReference: {fileID: 2100000, guid: 42f1722cb569bb744bcf58c00f6ea7e5, type: 2}
    - target: {fileID: -8002826794247820780, guid: ef5a7612a2d90904a9d1351c681d9938, type: 3}
      propertyPath: m_Materials.Array.data[1]
      value: 
      objectReference: {fileID: 2100000, guid: b5322f2b716c5464badcf67ec0b596cc, type: 2}
    - target: {fileID: -7167141730762331637, guid: ef5a7612a2d90904a9d1351c681d9938, type: 3}
      propertyPath: m_Materials.Array.data[0]
      value: 
      objectReference: {fileID: 2100000, guid: 42f1722cb569bb744bcf58c00f6ea7e5, type: 2}
    - target: {fileID: -6345218096006791920, guid: ef5a7612a2d90904a9d1351c681d9938, type: 3}
      propertyPath: m_Materials.Array.data[0]
      value: 
      objectReference: {fileID: 2100000, guid: 42f1722cb569bb744bcf58c00f6ea7e5, type: 2}
    - target: {fileID: -6345218096006791920, guid: ef5a7612a2d90904a9d1351c681d9938, type: 3}
      propertyPath: m_Materials.Array.data[1]
      value: 
      objectReference: {fileID: 2100000, guid: 66bf8c92ecc59454f92e2335a680f721, type: 2}
    - target: {fileID: -4792132192330089526, guid: ef5a7612a2d90904a9d1351c681d9938, type: 3}
      propertyPath: m_Materials.Array.data[0]
      value: 
      objectReference: {fileID: 2100000, guid: 42f1722cb569bb744bcf58c00f6ea7e5, type: 2}
    - target: {fileID: -4792132192330089526, guid: ef5a7612a2d90904a9d1351c681d9938, type: 3}
      propertyPath: m_Materials.Array.data[1]
      value: 
      objectReference: {fileID: 2100000, guid: b5322f2b716c5464badcf67ec0b596cc, type: 2}
    - target: {fileID: -4627071955654121307, guid: ef5a7612a2d90904a9d1351c681d9938, type: 3}
      propertyPath: m_Materials.Array.data[0]
      value: 
      objectReference: {fileID: 2100000, guid: 42f1722cb569bb744bcf58c00f6ea7e5, type: 2}
    - target: {fileID: -4627071955654121307, guid: ef5a7612a2d90904a9d1351c681d9938, type: 3}
      propertyPath: m_Materials.Array.data[1]
      value: 
      objectReference: {fileID: 2100000, guid: b5322f2b716c5464badcf67ec0b596cc, type: 2}
    - target: {fileID: -1785469711798293743, guid: ef5a7612a2d90904a9d1351c681d9938, type: 3}
      propertyPath: m_Materials.Array.data[0]
      value: 
      objectReference: {fileID: 2100000, guid: 42f1722cb569bb744bcf58c00f6ea7e5, type: 2}
    - target: {fileID: -971844246664460079, guid: ef5a7612a2d90904a9d1351c681d9938, type: 3}
      propertyPath: m_Materials.Array.data[0]
      value: 
      objectReference: {fileID: 2100000, guid: 42f1722cb569bb744bcf58c00f6ea7e5, type: 2}
    - target: {fileID: -333323338389071921, guid: ef5a7612a2d90904a9d1351c681d9938, type: 3}
      propertyPath: m_Materials.Array.data[0]
      value: 
      objectReference: {fileID: 2100000, guid: 42f1722cb569bb744bcf58c00f6ea7e5, type: 2}
    - target: {fileID: 301725604675921914, guid: ef5a7612a2d90904a9d1351c681d9938, type: 3}
      propertyPath: m_Materials.Array.data[0]
      value: 
      objectReference: {fileID: 2100000, guid: 42f1722cb569bb744bcf58c00f6ea7e5, type: 2}
    - target: {fileID: 301725604675921914, guid: ef5a7612a2d90904a9d1351c681d9938, type: 3}
      propertyPath: m_Materials.Array.data[1]
      value: 
      objectReference: {fileID: 2100000, guid: b5322f2b716c5464badcf67ec0b596cc, type: 2}
    - target: {fileID: 834325779108804353, guid: ef5a7612a2d90904a9d1351c681d9938, type: 3}
      propertyPath: m_Materials.Array.data[0]
      value: 
      objectReference: {fileID: 2100000, guid: 42f1722cb569bb744bcf58c00f6ea7e5, type: 2}
    - target: {fileID: 919132149155446097, guid: ef5a7612a2d90904a9d1351c681d9938, type: 3}
      propertyPath: m_Name
      value: unit_heavytank
      objectReference: {fileID: 0}
    - target: {fileID: 1618975140277264988, guid: ef5a7612a2d90904a9d1351c681d9938, type: 3}
      propertyPath: m_Materials.Array.data[0]
      value: 
      objectReference: {fileID: 2100000, guid: 42f1722cb569bb744bcf58c00f6ea7e5, type: 2}
    - target: {fileID: 2654178378653756301, guid: ef5a7612a2d90904a9d1351c681d9938, type: 3}
      propertyPath: m_Materials.Array.data[0]
      value: 
      objectReference: {fileID: 2100000, guid: 42f1722cb569bb744bcf58c00f6ea7e5, type: 2}
    - target: {fileID: 3880396428212378472, guid: ef5a7612a2d90904a9d1351c681d9938, type: 3}
      propertyPath: m_Materials.Array.data[0]
      value: 
      objectReference: {fileID: 2100000, guid: 42f1722cb569bb744bcf58c00f6ea7e5, type: 2}
    - target: {fileID: 3880396428212378472, guid: ef5a7612a2d90904a9d1351c681d9938, type: 3}
      propertyPath: m_Materials.Array.data[1]
      value: 
      objectReference: {fileID: 2100000, guid: b5322f2b716c5464badcf67ec0b596cc, type: 2}
    - target: {fileID: 3900707316537271368, guid: ef5a7612a2d90904a9d1351c681d9938, type: 3}
      propertyPath: m_Materials.Array.data[0]
      value: 
      objectReference: {fileID: 2100000, guid: 42f1722cb569bb744bcf58c00f6ea7e5, type: 2}
    - target: {fileID: 3900707316537271368, guid: ef5a7612a2d90904a9d1351c681d9938, type: 3}
      propertyPath: m_Materials.Array.data[1]
      value: 
      objectReference: {fileID: 2100000, guid: b5322f2b716c5464badcf67ec0b596cc, type: 2}
    - target: {fileID: 6290348691044442741, guid: ef5a7612a2d90904a9d1351c681d9938, type: 3}
      propertyPath: m_Materials.Array.data[0]
      value: 
      objectReference: {fileID: 2100000, guid: 42f1722cb569bb744bcf58c00f6ea7e5, type: 2}
    m_RemovedComponents: []
  m_SourcePrefab: {fileID: 100100000, guid: ef5a7612a2d90904a9d1351c681d9938, type: 3}
--- !u!4 &751564408029014897 stripped
Transform:
  m_CorrespondingSourceObject: {fileID: -8679921383154817045, guid: ef5a7612a2d90904a9d1351c681d9938, type: 3}
  m_PrefabInstance: {fileID: 1001117043574443162}
  m_PrefabAsset: {fileID: 0}
