%YAML 1.1
%TAG !u! tag:unity3d.com,2011:
--- !u!1 &107265252767636256
GameObject:
  m_ObjectHideFlags: 0
  m_CorrespondingSourceObject: {fileID: 0}
  m_PrefabInstance: {fileID: 0}
  m_PrefabAsset: {fileID: 0}
  serializedVersion: 6
  m_Component:
  - component: {fileID: 9222913969642569855}
  m_Layer: 13
  m_Name: solarpanel_preview
  m_TagString: Untagged
  m_Icon: {fileID: 0}
  m_NavMeshLayer: 0
  m_StaticEditorFlags: 0
  m_IsActive: 1
--- !u!4 &9222913969642569855
Transform:
  m_ObjectHideFlags: 0
  m_CorrespondingSourceObject: {fileID: 0}
  m_PrefabInstance: {fileID: 0}
  m_PrefabAsset: {fileID: 0}
  m_GameObject: {fileID: 107265252767636256}
  m_LocalRotation: {x: 0, y: 0, z: 0, w: 1}
  m_LocalPosition: {x: 0, y: 0, z: 0}
  m_LocalScale: {x: 1, y: 1, z: 1}
  m_Children:
  - {fileID: 2533044697372785286}
  m_Father: {fileID: 0}
  m_RootOrder: 0
  m_LocalEulerAnglesHint: {x: 0, y: 0, z: 0}
--- !u!1001 &4961608870604558660
PrefabInstance:
  m_ObjectHideFlags: 0
  serializedVersion: 2
  m_Modification:
    m_TransformParent: {fileID: 9222913969642569855}
    m_Modifications:
    - target: {fileID: 3635536264273671097, guid: b170194fe4218c549ad8c47668e8dd02, type: 3}
      propertyPath: m_Name
      value: solarpanel_model
      objectReference: {fileID: 0}
    - target: {fileID: 7492866361150450626, guid: b170194fe4218c549ad8c47668e8dd02, type: 3}
      propertyPath: m_RootOrder
      value: 0
      objectReference: {fileID: 0}
    - target: {fileID: 7492866361150450626, guid: b170194fe4218c549ad8c47668e8dd02, type: 3}
      propertyPath: m_LocalPosition.x
      value: 0
      objectReference: {fileID: 0}
    - target: {fileID: 7492866361150450626, guid: b170194fe4218c549ad8c47668e8dd02, type: 3}
      propertyPath: m_LocalPosition.y
      value: 0
      objectReference: {fileID: 0}
    - target: {fileID: 7492866361150450626, guid: b170194fe4218c549ad8c47668e8dd02, type: 3}
      propertyPath: m_LocalPosition.z
      value: 0
      objectReference: {fileID: 0}
    - target: {fileID: 7492866361150450626, guid: b170194fe4218c549ad8c47668e8dd02, type: 3}
      propertyPath: m_LocalRotation.w
      value: 1
      objectReference: {fileID: 0}
    - target: {fileID: 7492866361150450626, guid: b170194fe4218c549ad8c47668e8dd02, type: 3}
      propertyPath: m_LocalRotation.x
      value: -0
      objectReference: {fileID: 0}
    - target: {fileID: 7492866361150450626, guid: b170194fe4218c549ad8c47668e8dd02, type: 3}
      propertyPath: m_LocalRotation.y
      value: -0
      objectReference: {fileID: 0}
    - target: {fileID: 7492866361150450626, guid: b170194fe4218c549ad8c47668e8dd02, type: 3}
      propertyPath: m_LocalRotation.z
      value: -0
      objectReference: {fileID: 0}
    - target: {fileID: 7492866361150450626, guid: b170194fe4218c549ad8c47668e8dd02, type: 3}
      propertyPath: m_LocalEulerAnglesHint.x
      value: 0
      objectReference: {fileID: 0}
    - target: {fileID: 7492866361150450626, guid: b170194fe4218c549ad8c47668e8dd02, type: 3}
      propertyPath: m_LocalEulerAnglesHint.y
      value: 0
      objectReference: {fileID: 0}
    - target: {fileID: 7492866361150450626, guid: b170194fe4218c549ad8c47668e8dd02, type: 3}
      propertyPath: m_LocalEulerAnglesHint.z
      value: 0
      objectReference: {fileID: 0}
    m_RemovedComponents: []
  m_SourcePrefab: {fileID: 100100000, guid: b170194fe4218c549ad8c47668e8dd02, type: 3}
--- !u!4 &2533044697372785286 stripped
Transform:
  m_CorrespondingSourceObject: {fileID: 7492866361150450626, guid: b170194fe4218c549ad8c47668e8dd02, type: 3}
  m_PrefabInstance: {fileID: 4961608870604558660}
  m_PrefabAsset: {fileID: 0}
